\relax 
\providecommand \oddpage@label [2]{}
\@writefile{toc}{\contentsline {section}{\numberline {1}Benaderen van functies met radiale basis functies}{1}}
\@writefile{toc}{\contentsline {subsection}{\numberline {1.1}Opstellen interpolant}{1}}
\@writefile{toc}{\contentsline {section}{\numberline {2}Oplossen van stelsels}{5}}
\@writefile{toc}{\contentsline {subsection}{\numberline {2.1}Cholesky factorisatie}{6}}
\@writefile{toc}{\contentsline {subsection}{\numberline {2.2}Oplossen van stelsels}{7}}
